,coords,neu,ls,nints,length
0,[[275.         506.96905218 175.15869142]],0,59.63043478260869,2,114
1,[[275.         306.28504754  71.20777493]],0,50.625,2,308
2,[[275.         504.8660329  180.24954292]],1,26.0,1,422
3,[[275.         451.8415508  172.12536306]],2,25.16666666666667,1,307
4,[[275.         613.89839357 220.88103392]],7,39.85,1,138
5,[[275.         485.6455733  302.85134685]],9,27.75,1,172
6,[[275.         587.34627821 208.01500247]],10,29.416666666666664,1,87
7,[[275.         452.79422151 178.6565221 ]],11,19.583333333333336,1,295
8,[[275.         310.87937257  69.67692022]],13,28.0625,1,128
9,[[275.         450.97326231 179.03668362]],18,30.285714285714285,1,311
10,[[275.         469.95609287 311.4423178 ]],19,96.0,1,82
11,[[275.         737.21734468 222.28805263]],20,47.33333333333333,1,190
12,[[275.         636.9127287  170.80629797]],21,101.0,8,29
13,[[275.         590.68110532 152.9513482 ]],21,41.5,8,40
14,[[275.         312.97345732  63.64574409]],23,49.4078947368421,1,122
15,[[275.         607.49877628 214.03865778]],33,61.0,1,210
16,[[275.         455.30461953 165.1137085 ]],36,56.166666666666664,1,260
17,[[275.         581.54846534 189.81518498]],39,34.725,1,99
18,[[275.         605.1740152  218.35376739]],41,52.0,1,258
19,[[275.         202.61552138  96.46778908]],42,49.0625,2,56
20,[[275.         498.42351063 173.07674438]],43,33.70689655172414,2,129
21,[[275.         311.24819767  73.06649446]],43,61.83333333333333,2,64
22,[[275.         648.83193291 223.70739262]],44,34.75,1,294
23,[[275.         627.72763824 223.62995526]],51,58.26041666666667,1,190
24,[[275.         547.16876072 330.43330996]],56,27.111111111111107,1,138
25,[[275.         653.06389454 206.71961065]],57,49.65,1,167
26,[[275.         201.77320814 105.30987746]],60,24.964285714285715,2,69
27,[[275.         608.00157256 262.14595247]],64,44.21428571428571,1,103
28,[[275.        524.8730499 135.0926329]],65,55.5625,1,166
29,[[275.         316.87284222  59.83062849]],66,37.25,2,286
30,[[275.         598.94683977 212.28271757]],69,61.0,1,238
31,[[275.         695.40981826 225.29821558]],70,68.26666666666667,1,153
32,[[275.         463.42868343 175.81789987]],72,39.0,1,302
33,[[275.         613.88272828 220.91165173]],79,41.45833333333333,1,143
34,[[275.         457.30922633 174.57118944]],80,34.825,1,394
35,[[275.         603.08168961 217.79488984]],81,69.2,1,303
36,[[275.         328.76281071  46.94408172]],90,60.25,2,26
37,[[275.         318.71620208  58.5608816 ]],90,72.06818181818181,2,88
38,[[275.         687.62301904 236.01613565]],91,44.3125,1,298
39,[[275.         429.48300703 133.7625257 ]],93,36.5,1,59
40,[[275.         582.30552564 207.96637619]],94,31.0,1,359
41,[[275.         199.5812106   88.52477106]],96,20.166666666666664,1,215
42,[[275.         515.07020872 338.64265566]],97,35.75,2,210
43,[[275.         483.91094796 333.22490033]],97,24.125,2,99
44,[[275.         626.33148349 200.39492076]],105,73.125,6,51
45,[[275.         468.58115007 170.70416694]],106,48.0,1,262
46,[[275.         461.07821195 119.95996907]],108,18.0,2,56
47,[[275.         517.94599544 175.59934771]],112,41.0,1,401
48,[[275.         591.61087363 210.68207007]],113,28.5,1,196
49,[[275.         655.83202888 169.98210574]],114,33.49999999999999,4,59
50,[[275.         331.66217959  64.10551419]],117,92.0,1,119
51,[[275.         417.04231071 148.09256694]],119,28.291666666666668,1,47
52,[[275.         572.22756045 196.2920003 ]],122,29.75,1,139
53,[[275.         687.06072293 228.34297527]],123,58.42857142857143,1,240
54,[[275.         327.62960602  60.88514662]],124,47.749999999999986,4,126
55,[[275.         608.29446737 209.25840164]],132,47.637931034482754,1,155
56,[[275.         591.78762018 210.80799567]],133,45.5,1,210
57,[[275.         602.29930055 216.74339619]],134,24.5,1,215
58,[[275.         447.62199873 163.54905941]],135,65.95833333333334,1,131
59,[[275.         459.98242699 177.45448531]],136,51.875,1,211
60,[[275.         451.8597423  179.77157044]],138,29.0,1,107
61,[[275.         659.42119237 218.59174709]],140,57.59375,1,218
62,[[275.         482.8059048  172.52047355]],141,57.25,1,397
63,[[275.         490.91519669 172.92811806]],142,23.083333333333332,1,328
64,[[275.         320.78771387  46.8630824 ]],145,38.8409090909091,2,103
65,[[275.         317.68061602  47.65815208]],145,13.2,2,223
66,[[275.         470.04006265 173.44577387]],146,43.29545454545455,1,232
67,[[275.         498.76005374 174.60611259]],148,95.0,6,150
68,[[275.         302.13716714  60.95376203]],149,66.375,1,402
69,[[275.         573.36618498 177.99018753]],150,52.25,3,66
70,[[275.         631.21928662 217.35983523]],150,18.75,3,89
71,[[275.         638.03602188 186.80243311]],150,91.0,3,48
72,[[275.         583.72062065 201.52700491]],155,42.75,1,259
73,[[275.         546.90066556 131.36941781]],157,20.0,23,49
74,[[275.         301.49709038  64.17966028]],158,81.25,1,332
75,[[275.         272.73836384  50.54736846]],163,16.0,3,175
76,[[275.         287.71454147  55.46761921]],163,26.0,3,216
77,[[275.         473.84238686 322.72476456]],165,84.75,1,91
78,[[275.         449.56259662 173.28924775]],167,40.8,1,358
79,[[275.         452.94476823 179.89644416]],168,56.75,1,330
80,[[275.         648.32919526 226.34387141]],169,32.29166666666667,1,227
81,[[275.         637.31669196 226.37170232]],170,46.61111111111111,1,307
82,[[275.         561.83408843 184.97014967]],173,60.142857142857146,1,147
83,[[275.         516.28140355 173.87009574]],174,26.852040816326536,1,179
84,[[275.         597.87021381 207.532433  ]],176,37.66666666666666,1,147
85,[[275.         458.32857102 175.37766411]],179,86.75,1,319
86,[[275.         281.69770589  58.65313632]],183,39.716666666666654,1,418
87,[[275.         630.12361438 224.72233042]],184,96.36363636363636,12,74
88,[[275.         635.45603771 224.07699377]],185,30.975,1,246
89,[[275.         516.44002216 313.08982532]],186,28.375,1,83
90,[[275.         449.9180031  180.52166793]],189,56.92857142857142,1,286
91,[[275.         599.01622756 208.90391264]],190,56.0,1,191
92,[[275.         615.72040936 214.35301324]],191,66.96428571428571,1,110
93,[[275.         543.80155034 127.15910508]],192,98.0,2,59
94,[[275.         456.87972894 124.25735003]],192,40.3,2,173
95,[[275.         564.11243903 188.8738488 ]],193,40.5,2,55
96,[[275.         195.68589142 111.37290068]],194,38.5625,2,74
97,[[275.         548.68653231 152.07508191]],198,43.916666666666664,1,498
98,[[275.         547.59314882 332.77953926]],199,39.33333333333334,1,425
99,[[275.         302.89910787  53.29563049]],200,37.91666666666666,2,176
100,[[275.         305.3699536   68.52530643]],200,42.25,2,139
101,[[275.         774.4915455  234.75751873]],204,32.66666666666667,1,191
102,[[275.         768.24556553 228.66569752]],206,46.0,2,131
103,[[275.         811.7330922  305.66439319]],206,22.022727272727273,2,111
104,[[275.         473.82105732 317.50436004]],209,36.29166666666667,1,43
105,[[275.         570.62471001 197.59004666]],210,24.625,1,102
106,[[275.         479.33140804 282.53876604]],213,31.0,1,303
107,[[275.         457.68580432 110.87328366]],215,40.5,2,90
108,[[275.         441.83896541 116.30183883]],215,71.0,2,39
109,[[275.        666.4091671 165.3574088]],216,57.375,2,27
110,[[275.         700.17935153 199.22632102]],218,66.25,1,53
111,[[275.         451.69094165 176.96993382]],219,38.3125,1,215
112,[[275.         464.24282967 174.50991636]],220,39.49999999999999,1,116
113,[[275.         954.99733694 220.85004439]],222,51.0,1,295
114,[[275.         447.92516836 173.74775483]],227,97.75,1,316
115,[[275.         238.55849576 246.04620605]],228,40.0,1,156
116,[[275.        466.2565268 169.7930326]],232,48.21428571428571,1,226
117,[[275.        616.3195008 223.1450328]],233,40.875,1,183
118,[[275.         551.52766077 326.1404366 ]],235,27.0,1,261
119,[[275.         536.69278199 339.77917704]],238,72.74999999999997,1,181
120,[[275.         313.73608345  55.81488332]],242,58.9,1,163
121,[[275.         592.53894465 209.46644156]],245,68.5,1,66
122,[[275.         549.71886391 179.84072867]],248,68.24999999999997,1,330
123,[[275.         565.8646454  192.06610744]],249,32.75,1,198
124,[[275.         538.39911896 181.97237291]],251,48.5,1,257
125,[[275.         463.43925621 115.97073832]],260,24.5,2,174
126,[[275.         301.40807823  55.32289138]],261,36.5,1,212
127,[[275.         584.51518942 196.65042782]],266,84.14285714285714,1,271
128,[[275.         470.72264599 312.99521547]],267,43.25,1,70
129,[[275.         590.8811226  203.76779668]],268,52.166666666666664,2,179
130,[[275.         549.77285778 325.61786333]],272,48.66666666666666,1,46
131,[[275.         454.20433619 169.89568857]],273,37.25,1,486
132,[[275.         316.47181418  53.7441083 ]],274,51.765625,1,281
133,[[275.         583.50903443 206.63335297]],279,62.083333333333314,1,130
134,[[275.         639.1816717  180.32844021]],280,62.5,3,42
135,[[275.         638.97659193 181.47497826]],280,68.4375,3,84
136,[[275.         542.96301491 187.74484229]],281,52.46875,2,222
137,[[275.         319.21464153  46.60449675]],281,61.0,2,293
138,[[275.         564.45136641 197.32332729]],283,66.0,1,111
139,[[275.         604.84040505 220.66693226]],284,59.0,1,258
140,[[275.         415.46459136 155.7375137 ]],285,34.33333333333334,1,31
141,[[275.         450.54502433 157.68549968]],287,53.75,1,286
142,[[275.         617.63787739 216.05599787]],288,71.80357142857142,1,225
143,[[275.         597.35853971 216.17977241]],290,83.91666666666667,1,287
144,[[275.         615.0998668  217.15999844]],291,40.75,1,242
145,[[275.         535.8759737  176.24946666]],293,73.0,1,213
146,[[275.         702.34524386 175.85263245]],295,36.71428571428571,1,267
147,[[275.         191.72035257 126.86676326]],299,16.375,1,86
148,[[275.         521.81474163 174.73484891]],301,74.92857142857142,1,362
149,[[275.         289.32054786  54.09082859]],303,79.98863636363636,1,368
150,[[275.         627.56375863 220.52519228]],304,70.5,1,247
151,[[275.         543.70448661 334.59681813]],308,41.5,1,360
152,[[275.         746.55276576 203.00457382]],310,99.41666666666666,2,109
153,[[275.         474.50463691 178.99106801]],312,69.8,9,217
154,[[275.         466.00585872 275.78410682]],313,91.5,1,103
155,[[275.         612.5214565  170.05009353]],317,32.0,1,190
156,[[275.         652.62996107 183.1387767 ]],320,76.25,7,22
157,[[275.         451.19153477 170.65396464]],324,37.875,1,73
158,[[275.         628.41432966 220.11580454]],327,63.6,1,210
159,[[275.         313.42363448  58.30959364]],329,59.47916666666667,1,122
160,[[275.         528.06747611 163.39283973]],332,30.19776119402985,15,43
161,[[275.         524.30152885 164.47097772]],332,54.25,15,33
162,[[275.         287.40362005  55.4645148 ]],334,32.19230769230769,1,521
163,[[275.         554.17270978 187.6918572 ]],336,69.5,1,85
164,[[275.         415.19084639 155.64394559]],338,45.25,1,53
165,[[275.         461.08713764 169.57718604]],342,38.0,1,313
166,[[275.         456.13249434 126.74240349]],345,54.0,1,26
167,[[275.         499.99057101 174.35399364]],346,51.4,1,260
168,[[275.         463.53051833 174.17441199]],347,33.0,1,245
169,[[275.         463.16788599 171.57669548]],350,21.03571428571429,1,297
170,[[275.         552.34083304 129.33587967]],352,96.5,1,184
171,[[275.         633.48718827 222.20620079]],353,47.66666666666666,1,185
172,[[275.         452.04743955 125.94528591]],357,48.942307692307686,1,54
173,[[275.         580.72046619 144.62162742]],362,66.0,2,228
174,[[275.         787.29810521 219.98718627]],365,76.0,5,41
175,[[275.         679.26447927 220.00915088]],372,83.75,1,401
176,[[275.         632.87622363 221.99088334]],373,62.83333333333335,1,235
177,[[275.         319.36568033  62.60933621]],374,42.43055555555556,1,193
178,[[275.         591.2929944  210.47415516]],376,41.0,1,370
179,[[275.         474.95247989 322.08354097]],379,91.41666666666666,1,67
180,[[275.         637.25461502 147.75020069]],381,61.166666666666664,1,65
181,[[275.         288.0768939   53.20166077]],383,43.232142857142854,1,418
182,[[275.         281.39562048  58.41553729]],391,63.625,1,300
183,[[275.         293.32473947 311.68012263]],392,37.25,3,86
184,[[275.         254.55451144 267.20784785]],392,48.0,3,72
185,[[275.         268.62076897 246.59005186]],392,51.0,3,42
186,[[275.         435.99743804 134.97250471]],393,27.333333333333332,1,222
187,[[275.         294.28356415 233.81834507]],394,41.125,1,117
188,[[275.         822.8770481  234.48132684]],395,101.0,1,498
189,[[275.         614.7141133  222.49440201]],396,46.15,1,213
190,[[275.         440.06471911 124.58407559]],397,9.0,3,58
191,[[275.         439.95079281 108.65332764]],397,71.6,3,31
192,[[275.         479.25174709 280.90351954]],399,57.83333333333333,1,125
193,[[275.         711.25340372 160.25319026]],400,95.75,1,373
194,[[275.         612.63056073 220.85321954]],402,48.225,1,223
195,[[275.         592.30681921 206.58216343]],405,36.0,1,227
196,[[275.         309.95683241  74.69983806]],406,23.750000000000004,1,132
197,[[275.         798.72623649 206.57815495]],407,67.1875,1,50
198,[[275.         283.04971862  58.66363698]],408,62.87500000000002,1,489
199,[[275.         516.28533229 341.15224727]],409,73.24999999999997,1,64
200,[[275.         605.36232434 220.35152345]],410,51.416666666666664,1,137
201,[[275.         518.45500466 138.72971981]],411,47.0,10,24
202,[[275.         690.44952292 180.5408599 ]],412,90.75000000000003,4,94
203,[[275.         529.18867363 340.53034497]],414,35.5625,2,204
204,[[275.         536.22896128 337.99529308]],414,28.583333333333343,2,202
205,[[275.         599.43562465 207.33977294]],417,41.9,1,248
206,[[275.         638.2378002  226.09281106]],418,42.0,1,177
207,[[275.         591.42313082 209.94447853]],422,33.5,1,195
208,[[275.         452.08148624 125.28131864]],423,30.75,1,230
209,[[275.         628.15873559 219.6280782 ]],426,40.6875,1,205
210,[[275.         791.71797412 220.32049288]],433,61.75,1,345
211,[[275.         447.77241162 128.55150963]],434,40.0,7,28
212,[[275.         568.91527152 197.67760085]],437,43.15384615384615,1,174
213,[[275.         200.11997029  90.31936522]],438,29.392857142857146,1,114
214,[[275.         279.77845242  51.44116038]],443,59.65,1,564
215,[[275.         607.75510319 262.82426109]],444,29.5625,1,110
216,[[275.         315.51837055  57.02213355]],449,50.958333333333336,1,153
217,[[275.         541.76893665 189.30358794]],451,63.10714285714287,1,279
218,[[275.         202.27118897  94.14463943]],452,60.0,3,23
219,[[275.         199.07045801  75.61704611]],452,53.58333333333333,3,29
220,[[275.         531.51533528 345.71704419]],453,24.75,1,453
221,[[275.         301.66548597  80.64603382]],455,46.0,4,58
222,[[275.         502.66158742 175.64530313]],457,32.0,1,299
223,[[275.         280.31141703  51.99435769]],458,70.66666666666667,1,516
224,[[275.         615.71522457 219.54457483]],461,33.890625,1,210
225,[[275.         465.14977682 175.56278539]],462,31.0,1,283
226,[[275.         546.81818622 331.61595166]],465,31.0,1,565
227,[[275.         292.5134889   65.74899681]],466,34.0,1,300
228,[[275.         586.82687139 207.49969754]],467,26.0,1,88
229,[[275.         310.77124444  49.88681776]],468,65.20833333333333,1,114
230,[[275.         545.18562459 332.81169668]],469,33.875,1,188
231,[[275.         498.46858116 335.63338315]],475,48.0,1,189
232,[[275.         457.74796921 174.76890913]],481,51.5,1,215
233,[[275.        233.7436304 256.071476 ]],483,60.55555555555556,1,140
234,[[275.         720.09299116 205.17804131]],488,94.04166666666667,14,27
235,[[275.         671.60977356 170.52123636]],488,67.5,14,79
236,[[275.         194.91616036  83.89999878]],491,38.125,1,50
237,[[275.         308.63282386  85.15258565]],493,57.0,2,168
238,[[275.         202.89747233 111.73429128]],493,56.833333333333336,2,93
239,[[275.         295.4284594   68.18343829]],496,37.349999999999994,1,283
240,[[275.         532.65088496 341.85765883]],498,61.0,1,243
241,[[275.         450.19169393 182.1167332 ]],500,29.333333333333336,1,303
242,[[275.         455.1404281  166.37127232]],501,26.1,1,712
243,[[275.         263.73932094 246.41445217]],502,53.750000000000014,1,226
244,[[275.         464.6851616  171.22214107]],504,20.9375,1,141
245,[[275.         460.07608718 270.40364763]],506,36.125,1,151
246,[[275.         316.4002583   74.75676659]],508,46.5,6,82
247,[[275.         587.61010042 164.66877855]],508,38.75,6,149
248,[[275.         310.35683116  61.11675596]],508,54.21428571428571,6,232
249,[[275.         195.57366694 102.04893941]],509,76.0,3,29
250,[[275.         771.5961915  228.60083009]],510,47.916666666666664,1,190
251,[[275.         487.91808553 171.55034821]],512,37.33333333333333,1,249
252,[[275.         196.28878312 133.18188492]],513,46.75,3,30
253,[[275.         448.32207518 112.35467753]],513,39.0,3,70
254,[[275.         645.6193727  210.70661562]],514,62.0,1,268
255,[[275.         446.00616113 120.90244973]],516,55.17857142857143,1,47
256,[[275.         453.85314274 123.81032365]],518,20.25,2,40
257,[[275.         444.51577753 119.5093796 ]],518,37.729166666666664,2,38
258,[[275.        635.0457717 221.3124062]],519,69.84375,1,217
259,[[275.         304.61434305  71.22730237]],521,56.249999999999986,1,90
260,[[275.         588.71453762 203.46734762]],526,38.312500000000014,1,150
261,[[275.         515.99563789 175.62760679]],527,56.5625,1,180
262,[[275.         543.50058675 333.66509765]],530,76.0,1,201
263,[[275.         627.66274265 219.04242128]],531,74.71875,1,199
264,[[275.         470.96318403 174.49427128]],532,26.5,1,583
265,[[275.         614.05032635 220.43821092]],536,72.5,1,239
266,[[275.         435.70212804 131.27113117]],537,61.0,2,69
267,[[275.         564.16232762 194.11971634]],539,67.75000000000003,1,77
268,[[275.         505.57271403 177.08894344]],541,42.35714285714286,1,249
269,[[275.         604.92205358 221.4094173 ]],542,56.5,1,317
270,[[275.         471.18039324 314.65101509]],544,85.5,1,51
271,[[275.         545.61655845 331.2534475 ]],545,71.0,1,226
272,[[275.         440.03667807 117.95040353]],546,73.0,1,229
273,[[275.         597.47410839 214.30715457]],549,75.775,1,229
274,[[275.         569.17934007 193.71059784]],554,47.25,1,160
275,[[275.         239.64821739 245.3316143 ]],558,47.83333333333334,1,85
276,[[275.         281.82211574  63.26411291]],559,59.92307692307692,1,360
277,[[275.         471.88060752 309.20080822]],560,71.75,1,215
278,[[275.         478.75956301 174.01288407]],561,35.15,1,199
279,[[275.         539.5104553  181.62470924]],562,65.875,1,253
280,[[275.         431.67563267 116.65977113]],564,76.0,10,51
281,[[275.         460.95242111 178.09150047]],565,76.81818181818183,1,289
282,[[275.         469.7867139  302.84684546]],566,34.75,1,244
283,[[275.         316.45637599  69.91583142]],567,32.5,1,188
284,[[275.         553.57360372 319.11357149]],568,78.25,1,133
285,[[275.         514.44585973 340.01603672]],569,65.5,1,129
286,[[275.         299.39580789 241.23378165]],572,43.999999999999986,1,304
287,[[275.        453.7112549 122.0662312]],578,66.50000000000003,3,47
288,[[275.         292.54779533  61.5461742 ]],579,57.175,1,299
289,[[275.         242.72641274 246.17432738]],580,49.57142857142857,1,77
290,[[275.         453.67673161 175.52520069]],581,86.5909090909091,1,418
291,[[275.         614.83951731 221.2243261 ]],584,63.5,1,230
292,[[275.         659.38717108 218.21465454]],586,49.4375,1,216
293,[[275.         278.4902055   57.20503082]],590,63.705882352941195,1,493
294,[[275.         616.40807982 221.08713491]],591,90.75,1,294
295,[[275.         454.9957398  174.08368948]],592,39.70833333333333,1,185
296,[[275.         636.36796566 165.00988988]],596,73.33333333333333,2,52
297,[[275.         437.97146607 132.67595129]],600,45.25,1,68
298,[[275.         283.78675702  58.28419144]],602,66.41666666666666,1,470
299,[[275.         453.02816264 172.09648934]],603,22.0,1,203
300,[[275.         236.2532247  244.54504118]],605,28.0,1,94
301,[[275.         462.27737649 118.98147069]],610,59.96428571428571,5,51
302,[[275.         470.10624624 266.95327533]],612,48.0,1,192
303,[[275.         474.87975914 327.5920616 ]],615,71.0,2,48
304,[[275.         543.39614028 179.39356427]],616,46.25,1,222
305,[[275.         192.28659515 124.29003054]],617,38.05,1,96
306,[[275.         237.59573903 249.21331176]],618,43.91666666666667,1,160
307,[[275.         615.40901291 216.5242346 ]],621,51.05,1,223
308,[[275.         197.28433508 128.44592717]],624,23.625,1,101
309,[[275.         565.87401914 193.08605248]],625,54.333333333333336,1,157
310,[[275.         844.32263136 238.93244135]],626,99.33333333333331,1,122
311,[[275.         435.7969224  128.39328998]],627,55.75,1,136
312,[[275.         617.94520278 219.5687078 ]],628,52.75,1,178
313,[[275.         232.98331698 250.01866705]],629,52.0,1,122
314,[[275.         636.47049873 221.04507738]],630,36.0,1,284
315,[[275.         282.43070708  61.12549265]],632,73.38636363636364,1,562
316,[[275.         504.65508368 174.30031156]],633,21.14285714285714,1,402
317,[[275.         459.13349336 120.2514306 ]],637,21.0,12,47
318,[[275.         280.75055744  56.66753025]],640,57.384615384615394,1,349
319,[[275.         756.49397524 213.58491366]],645,86.0,3,57
320,[[275.         630.76364375 224.46219093]],647,31.340909090909086,1,216
321,[[275.         197.48771292 122.71124436]],651,33.29166666666666,1,143
322,[[275.         645.18791628 227.19127142]],653,38.29166666666666,1,226
323,[[275.         545.62821211 333.52493386]],654,37.25,1,397
324,[[275.         562.43519235 188.86010636]],664,43.38095238095238,1,203
325,[[275.         199.11604497 116.2399118 ]],666,24.83333333333333,1,53
326,[[275.         586.5025007  210.51073228]],667,66.08333333333333,1,254
327,[[275.         515.71559662 178.7711757 ]],669,48.0,2,256
328,[[275.         321.37445354  53.84960004]],669,50.44444444444444,2,338
329,[[275.         593.38389124 208.72262777]],671,46.0,1,142
330,[[275.         597.66098278 215.80094543]],673,29.0,1,264
331,[[275.         747.96997791 182.55563238]],675,43.40625,1,197
332,[[275.         719.43526916 194.0300492 ]],678,79.75,11,88
333,[[275.         651.3877785  222.10520638]],680,58.0,1,208
334,[[275.         633.49104758 222.82691166]],681,51.0,1,231
335,[[275.         202.49186412 121.04468858]],687,56.392857142857146,7,106
336,[[275.         547.31375767 330.68938356]],688,38.708333333333336,1,362
337,[[275.         595.97057263 180.84379818]],690,51.46428571428571,4,95
338,[[275.         621.67092082 187.19270247]],690,54.041666666666664,4,31
339,[[275.         309.10315143  64.69970834]],691,90.75,2,27
340,[[275.         465.91034741 171.04333043]],695,16.0,1,73
341,[[275.         196.44195356 128.67609348]],698,25.035714285714285,2,40
342,[[275.         196.47185815 121.32404414]],698,36.125,2,29
343,[[275.         473.80744204 321.98534072]],700,81.0,1,110
344,[[275.         296.16232175 242.81668804]],701,49.0,1,550
345,[[275.         506.96025227 145.83639487]],704,52.41666666666667,4,30
346,[[275.         456.27078647 172.6371579 ]],706,62.25,1,503
347,[[275.         605.26555124 214.20282464]],713,42.0,1,124
348,[[275.         202.67090111 104.78136259]],722,16.0,5,129
349,[[275.         455.91188421 127.4350805 ]],722,48.30803571428571,5,73
350,[[275.         518.67837707 183.46250392]],729,51.0,1,294
351,[[275.         460.91391444 173.72986945]],730,27.125,1,125
352,[[275.         603.39948168 218.52240954]],731,38.3125,1,216
353,[[275.         492.74350459 168.56546106]],733,54.25,7,67
354,[[275.         449.93939663 113.96085935]],733,94.61111111111111,7,121
355,[[275.         445.3696551  126.88169456]],733,25.583333333333336,7,26
356,[[275.         464.00043151 174.31010067]],734,54.777777777777786,1,247
357,[[275.         546.83507009 331.38888498]],736,25.0,1,405
358,[[275.         553.55980571 192.53987467]],737,61.0,1,253
359,[[275.         681.92006325 218.80514472]],738,79.23333333333332,1,152
360,[[275.         718.66745556 226.38690633]],739,20.8125,1,282
361,[[275.         523.00818324 337.18397732]],740,47.25,1,383
362,[[275.         590.4278082  206.11859337]],743,42.333333333333336,1,156
363,[[275.         191.25588085 114.01042294]],745,31.75,4,138
364,[[275.         435.03516214 132.93103139]],745,36.75,4,84
365,[[275.         461.56926939 117.80635338]],746,64.66666666666666,15,63
366,[[275.         606.24718049 210.44206157]],748,45.8125,1,115
367,[[275.         540.99221103 183.06138741]],753,38.55555555555556,1,212
368,[[275.         592.23883174 210.74880817]],758,51.0,1,80
369,[[275.         525.71381661 180.22139401]],759,66.16666666666667,1,274
370,[[275.         589.81033287 198.06696914]],762,33.25,1,294
371,[[275.         524.88188317 128.43692432]],769,91.0,10,43
372,[[275.         618.59086856 216.34336285]],771,40.750000000000014,1,119
373,[[275.         453.81424859 127.8534417 ]],772,39.30769230769231,1,47
374,[[275.         460.90857658 174.01419257]],773,72.75,5,232
375,[[275.         442.43040756 118.47334688]],775,35.125,2,68
376,[[275.         815.13329353 194.50495864]],777,101.0,1,315
377,[[275.         314.2170068   68.11318926]],778,51.875,1,179
378,[[275.         545.09560086 333.74744718]],779,52.25,1,382
379,[[275.         599.41113624 212.61068216]],780,28.5,1,243
380,[[275.         295.34224649  54.51993454]],781,86.67857142857143,2,262
381,[[275.         311.45567887  47.02915157]],781,33.875,2,151
382,[[275.         241.91287678 248.78153097]],782,30.7,1,284
383,[[275.         447.09357895 184.93042812]],783,52.0,1,245
384,[[275.         613.84978608 215.50996358]],786,41.708333333333336,1,120
385,[[275.         542.86940638 135.92683124]],789,42.977272727272734,1,124
386,[[275.         814.25411472 236.47763061]],790,69.375,1,88
387,[[275.         502.41070975 180.62365073]],792,41.0,1,359
388,[[275.         439.0352471  107.99224921]],796,28.5,2,501
389,[[275.         195.32689211 114.66747634]],796,23.47222222222222,2,209
390,[[275.         418.94077917 154.03237974]],797,17.75,4,23
391,[[275.         428.29357157 174.60645677]],797,84.25,4,30
392,[[275.         426.75975563 164.8425896 ]],797,79.15,4,59
393,[[275.         634.88412195 226.01277387]],799,62.6875,1,242
394,[[275.         615.6934981  210.01456489]],800,55.75,1,354
395,[[275.         540.1795757  183.91256437]],801,56.0,1,268
396,[[275.         653.08331983 181.26738776]],802,33.25,11,43
397,[[275.        753.7360098 216.4713601]],802,44.59090909090908,11,52
398,[[275.         695.64655297 200.08949365]],802,24.833333333333336,11,57
399,[[275.         729.21572659 201.70267323]],802,61.75,11,28
400,[[275.         309.76417913  68.0219834 ]],804,60.20833333333333,1,288
401,[[275.         563.60658448 198.04964973]],806,49.16666666666667,1,272
402,[[275.         505.39716368 173.97229993]],807,33.0,1,191
403,[[275.         299.12913475  63.80687472]],812,14.375,1,408
404,[[275.         430.65352534 113.02585603]],814,80.0,16,48
405,[[275.         499.79294897 151.14538302]],814,49.0,16,23
406,[[275.         516.90253414 122.2397138 ]],814,35.3125,16,42
407,[[275.         614.06657009 209.212548  ]],817,63.02083333333333,1,222
408,[[275.         286.10917238  55.99170361]],818,82.328125,1,392
409,[[275.         588.82239911 211.29120458]],819,29.4375,1,368
410,[[275.         724.06851324 177.39060565]],820,69.15789473684211,1,181
411,[[275.         196.5894699  118.37227896]],824,29.083333333333336,1,78
412,[[275.         458.29865938 169.51936446]],827,45.96428571428571,4,297
413,[[275.         278.34243097 246.59874885]],827,39.734375,4,98
414,[[275.         590.10416564 206.38772378]],828,38.5,1,209
415,[[275.         545.81166067 332.42360177]],829,56.0,1,153
416,[[275.         684.97890837 179.76918305]],831,41.0,1,56
417,[[275.         606.50302334 222.82448596]],832,42.568181818181806,1,279
418,[[275.         460.89744346 120.11079269]],838,29.59375,3,26
419,[[275.         613.26852707 215.54664424]],841,26.0,1,184
420,[[275.         474.42246063 305.12982007]],842,58.53125,1,107
421,[[275.         644.70349739 223.09012739]],843,40.499999999999986,1,256
422,[[275.         555.51283101 188.49142645]],844,41.1875,1,162
423,[[275.         459.42390678 170.29572942]],851,34.75,1,262
424,[[275.         571.52857422 180.02257957]],854,97.5340909090909,2,141
425,[[275.         233.78649486 244.21757367]],856,32.874999999999986,3,598
426,[[275.         445.11008507 111.6345655 ]],856,43.75,3,45
427,[[275.         194.02987167 108.10739486]],856,43.25,3,118
428,[[275.         291.08919118  58.05260226]],858,56.625,1,197
429,[[275.         460.2515534  132.66451596]],860,62.75,4,24
430,[[275.         271.63861873  50.82476503]],861,68.69999999999999,1,516
431,[[275.         618.82223289 217.22502813]],862,67.25,1,333
432,[[275.         598.25387606 217.39464794]],863,48.1,1,220
433,[[275.         324.40005099  49.14086102]],864,69.1875,1,295
434,[[275.         615.87245998 220.01827286]],873,28.25,1,219
435,[[275.         189.44918314 190.3720532 ]],875,39.75,9,65
436,[[275.         756.17554194 229.64436188]],879,42.5,1,139
437,[[275.         436.88348209 130.61685214]],880,59.05263157894736,1,85
438,[[275.         518.09878758 180.08997004]],883,37.66666666666666,1,428
439,[[275.         591.97264129 209.12064248]],886,41.5,1,138
440,[[275.         566.65904551 200.29529101]],887,49.93181818181817,1,79
441,[[275.         615.14419018 218.80350193]],888,49.03846153846153,1,245
442,[[275.         284.18848038  61.33325491]],893,52.26923076923076,1,506
443,[[275.         457.12062248 175.40921085]],894,30.166666666666668,1,350
444,[[275.         554.04737607 190.69660886]],900,50.166666666666664,1,127
445,[[275.         503.46999835 172.59290563]],901,35.44285714285714,2,213
446,[[275.         311.01648659  55.58746295]],901,53.0,2,126
447,[[275.         302.06914752  68.04782794]],903,57.55882352941177,1,607
448,[[275.         589.98197728 210.61620537]],905,33.83333333333333,1,140
449,[[275.         525.67379612 291.08987318]],906,31.0,1,475
450,[[275.         541.47739698 189.71092744]],907,92.25,1,280
451,[[275.         631.26794993 219.70120552]],908,36.5,1,278
452,[[275.         465.79606662 122.74727171]],911,29.0,9,114
453,[[275.         542.35669599 125.66474297]],911,86.0,9,38
454,[[275.         453.23710324 109.71133619]],911,61.583333333333336,9,67
455,[[275.         325.55108924  50.65170889]],914,80.45833333333334,1,60
456,[[275.         435.41920786 132.36871384]],915,96.5,6,129
457,[[275.         489.23732048 157.14715027]],915,51.0,6,54
458,[[275.         445.85766624 127.39866257]],915,46.25,6,48
459,[[275.         238.47318634 246.93786675]],919,28.578125,1,88
460,[[275.         594.95695149 206.52645578]],920,67.96875,1,140
461,[[275.         562.59624629 190.88898216]],922,63.96875,1,161
462,[[275.         531.2543258  293.10600301]],923,21.0,1,400
463,[[275.         723.89513901 227.3931985 ]],925,46.611111111111114,1,245
464,[[275.         528.71763651 123.54163667]],927,101.0,19,52
465,[[275.         492.79196437 155.30007026]],927,84.6,19,34
466,[[275.         459.79382058 160.37377256]],927,23.5,19,63
467,[[275.         279.37984     51.56283634]],930,61.4705882352941,1,532
468,[[275.         289.9135446   65.80234402]],931,58.92857142857143,1,353
469,[[275.         563.96102954 193.98104614]],933,29.765625,1,167
470,[[275.         569.48461844 148.58838094]],937,74.33653846153847,18,157
471,[[275.         462.78977416 110.766573  ]],938,77.25,5,30
472,[[275.         518.34417702 179.73472663]],940,91.0,1,326
473,[[275.         492.65008385 175.26849523]],943,30.480769230769234,1,257
474,[[275.         298.55020599  58.06056548]],947,64.0,2,160
475,[[275.         786.72931022 237.10189337]],947,78.4,2,461
476,[[275.         615.97465227 223.72420819]],949,44.48076923076924,1,229
477,[[275.         523.74843802 339.16546161]],952,40.0,2,210
478,[[275.         500.25671236 334.94916063]],952,41.25,2,122
479,[[275.         504.26537852 176.6282178 ]],956,33.3125,1,190
480,[[275.         195.28542322 139.4555629 ]],957,42.75,2,116
481,[[275.         302.49687383  77.64500415]],957,42.25,2,136
482,[[275.         572.33946479 148.28041007]],961,40.153846153846146,1,117
483,[[275.         659.35499388 221.35917142]],964,56.0,1,280
484,[[275.         465.13568302 176.24967607]],966,36.0,1,275
485,[[275.         308.79194493  75.10281624]],967,91.25,2,155
486,[[275.         317.6859178   56.17082435]],967,48.76086956521739,2,144
487,[[275.         193.98003698  95.56092982]],970,38.17857142857143,2,98
488,[[275.         202.32289399  82.45775611]],970,46.0,2,73
489,[[275.         788.53991068 226.33440939]],971,51.75,1,66
490,[[275.         452.10288761 174.15760473]],973,51.0,1,396
491,[[275.         516.41388067 178.30353947]],974,57.61111111111112,1,266
492,[[275.         598.10037105 209.77099668]],978,57.25,1,70
493,[[275.         462.21801603 174.03678835]],981,33.50000000000001,1,350
494,[[275.         602.94445261 213.81636616]],985,25.375,1,146
495,[[275.         607.20555366 214.35808889]],986,24.25,1,143
496,[[275.         546.48262966 183.73235007]],988,63.47368421052632,1,200
497,[[275.         264.49352071 248.92670939]],990,7.25,2,112
498,[[275.         257.2987482  252.43261164]],990,35.25,2,78
499,[[275.         605.68945817 223.85844861]],991,61.03125,1,92
500,[[275.         235.55745843 251.16486933]],998,35.5,1,286
501,[[275.         681.75225112 226.06218188]],999,52.41666666666667,1,214
502,[[275.         553.91555711 177.54195211]],1002,53.875,1,167
503,[[275.        795.9640475 224.9922469]],1004,43.5,5,23
504,[[275.        461.6180051 121.926572 ]],1005,25.6,2,49
505,[[275.         456.99520865 174.95915544]],1006,52.75,1,337
506,[[275.         613.71330513 216.7164281 ]],1009,27.0,1,229
507,[[275.         606.11631005 207.71281758]],1010,63.642857142857146,1,194
508,[[275.         452.16152926 174.29722683]],1012,70.79545454545453,1,332
509,[[275.         301.90280942  67.94409956]],1014,41.25,1,181
510,[[275.         438.20936567 128.27636977]],1016,47.25,2,49
511,[[275.         200.16598209 103.92195487]],1017,26.0,2,107
512,[[275.         187.05139956 125.33407641]],1017,26.5,2,29
513,[[275.         199.53988961 113.13076833]],1021,46.0,2,87
514,[[275.         203.3424891   81.71080061]],1021,55.5,2,52
515,[[275.         643.399542   164.49822546]],1025,66.25000000000001,7,54
516,[[275.         646.43459381 162.79991944]],1025,59.0,7,28
517,[[275.         490.53008333 333.99264911]],1026,70.375,1,300
518,[[275.         315.13928332  69.13397362]],1034,64.0,2,234
519,[[275.         515.70741182 174.07377309]],1034,46.83695652173913,2,135
520,[[275.         613.9446218  222.93040146]],1035,26.0,1,198
521,[[275.         191.61869723 130.87645733]],1036,42.0,1,102
522,[[275.         603.36886471 214.81148785]],1037,46.0,1,168
523,[[275.         552.41824751 322.04960113]],1040,33.5,1,298
524,[[275.         606.31124544 213.78980239]],1042,95.64285714285714,1,319
525,[[275.         458.85171116 113.65081842]],1043,26.0,25,36
526,[[275.         449.70023123 115.58070866]],1043,31.0,25,24
527,[[275.         491.02925    162.12307252]],1043,101.0,25,22
528,[[275.         461.40621488 168.01124303]],1043,100.4375,25,25
529,[[275.         540.95198695 122.65554438]],1043,101.0,25,30
530,[[275.         445.23630436 130.9303711 ]],1043,88.6818181818182,25,36
531,[[275.         456.2041783  127.96567772]],1043,67.875,25,31
532,[[275.         459.98858016 169.6482262 ]],1043,82.0,25,65
533,[[275.         325.60091104  52.62731374]],1044,80.69230769230771,1,88
534,[[275.         293.70628737  61.10543864]],1046,74.42857142857144,1,510
535,[[275.         200.185641   110.44686077]],1047,31.0,2,54
536,[[275.         193.4274889  132.30351358]],1047,27.0,2,103
537,[[275.         615.86915494 218.51139639]],1050,55.0,1,284
538,[[275.         462.05721284 119.13628155]],1052,35.125,4,22
539,[[275.         471.53119037 171.64773277]],1056,56.0,1,303
540,[[275.         617.05072017 221.6433643 ]],1058,54.75,1,218
541,[[275.         307.70033255  50.53571625]],1059,92.25,1,139
542,[[275.         195.44519554 114.59634323]],1060,33.25,8,26
543,[[275.         616.52999941 218.85783261]],1062,71.0,1,369
544,[[275.         752.93742685 225.57445091]],1064,101.0,1,268
545,[[275.         463.93161738 121.05661695]],1066,64.25,8,35
546,[[275.         242.92152103 260.98667733]],1067,41.875,3,227
547,[[275.         311.39340162  74.52398474]],1067,82.0,3,182
548,[[275.         450.47616185 113.35890984]],1067,46.6,3,157
549,[[275.         656.136775   230.03117228]],1071,35.55357142857143,17,97
550,[[275.         272.42567717  58.72250869]],1074,56.230769230769226,1,334
551,[[275.         626.7433535  221.96388827]],1078,58.230000000000004,1,238
552,[[275.         193.26602595 140.2215644 ]],1079,11.75,3,25
553,[[275.         646.57754533 225.93841404]],1080,46.0,1,233
554,[[275.         453.55991933 127.55829049]],1082,33.954545454545446,1,43
555,[[275.         541.26834153 337.49401365]],1085,37.375,1,453
556,[[275.         439.70453403 111.79682606]],1087,38.5,2,98
557,[[275.         194.43263468 136.69279129]],1087,55.25,2,31
558,[[275.         300.38852823  59.20903344]],1090,32.25,1,268
559,[[275.         605.28428819 212.54336035]],1094,51.75,1,102
560,[[275.         565.78881046 196.68817596]],1095,46.152777777777764,1,152
561,[[275.         430.20150944 107.2945006 ]],1098,37.875,2,30
562,[[275.         630.21840768 217.25372437]],1101,51.750000000000014,1,258
563,[[275.         201.20469066  98.16503987]],1104,18.875,4,117
564,[[275.         470.498235   177.27689165]],1108,60.16666666666667,1,356
565,[[275.         232.76398422 206.21771521]],1109,59.11111111111112,1,43
566,[[275.         445.4953148  123.97467048]],1114,34.625,3,51
567,[[275.         276.7490998  245.99709794]],1115,26.884615384615387,1,131
568,[[275.         477.67200815 281.95387126]],1116,25.5,1,635
569,[[275.         566.19719825 197.78943683]],1117,59.34375,1,231
570,[[275.         498.39514666 173.87040344]],1119,36.0,1,274
571,[[275.         438.00815986 154.3409537 ]],1124,37.625,1,108
572,[[275.         317.12744995  65.65551337]],1126,36.41666666666667,3,28
573,[[275.         324.23000932  58.67891264]],1126,25.75,3,43
574,[[275.         280.56345346  63.8175909 ]],1128,46.91666666666667,1,477
575,[[275.         452.58121039 146.22474035]],1130,53.09375,7,142
576,[[275.         484.51050243 114.60253111]],1131,49.63333333333333,4,28
577,[[275.         437.67847034 133.76621373]],1132,58.5,8,43
578,[[275.         444.68145561 125.6876735 ]],1132,62.282805429864254,8,42
579,[[275.         708.13988057 225.00380756]],1134,76.3142857142857,1,138
580,[[275.         543.76166717 333.81578789]],1137,53.5,1,218
581,[[275.         590.75548911 198.62527207]],1139,36.0,1,305
582,[[275.         238.62491412 245.6439582 ]],1142,20.750000000000004,1,78
583,[[275.         514.54986532 178.71436553]],1143,63.25,1,180
584,[[275.         609.84443691 212.45193966]],1148,56.0,1,187
585,[[275.         500.08516078 159.24485011]],1150,31.75,9,41
586,[[275.         528.9768816  219.29666206]],1150,25.54850746268657,9,37
587,[[275.         448.07203256 115.05223533]],1158,76.5,2,31
588,[[275.         527.44060131 343.67866014]],1161,32.625,1,110
589,[[275.         617.25013005 216.12056157]],1163,31.125,1,230
590,[[275.         665.57844715 226.10743819]],1166,59.00806451612904,1,251
591,[[275.         511.21432291 337.94534093]],1167,57.10714285714287,1,57
592,[[275.         274.43775691  57.08269215]],1168,31.5,1,294
593,[[275.         308.16189194  67.8154908 ]],1169,16.0,1,178
594,[[275.         613.83003317 221.57966609]],1170,69.2,1,218
595,[[275.         690.09805328 183.85259239]],1171,17.333333333333332,22,52
596,[[275.         306.3203403   67.13690869]],1173,41.527777777777786,1,66
597,[[275.         497.40930816 229.53376967]],1174,37.85,1,98
598,[[275.         573.62513423 203.17219437]],1176,23.590909090909097,1,205
599,[[275.         450.76800993 182.6545121 ]],1178,20.041666666666664,1,275
600,[[275.         615.73264474 222.30638989]],1179,28.25,1,208
601,[[275.         280.56202617  55.38353712]],1183,64.225,1,331
602,[[275.         541.89155792 335.10053529]],1187,48.25,1,287
603,[[275.         600.02944961 214.51992172]],1190,49.75000000000001,1,401
604,[[275.         613.69609607 225.36803587]],1193,49.90625,1,187
605,[[275.         651.5193996  216.93723936]],1194,68.5,2,31
606,[[275.         612.772443   218.02951872]],1195,52.5,1,322
607,[[275.         456.54068314 173.09811154]],1196,28.375,1,375
608,[[275.         433.02428618 107.78926658]],1198,49.0,1,141
609,[[275.         630.16881222 198.27460542]],1199,50.625,1,314
610,[[275.         308.04175572  62.51269613]],1200,26.423076923076923,1,176
611,[[275.         283.53836431  51.55704862]],1205,77.546875,1,471
612,[[275.         636.08100356 158.20330378]],1207,63.75,7,28
613,[[275.         636.83298188 183.42642395]],1207,48.27777777777777,7,38
614,[[275.         679.1779369  181.05370153]],1208,34.5,5,90
615,[[275.         283.7831357   51.72864772]],1209,36.102941176470594,1,475
616,[[275.         614.5559168  216.08880567]],1212,46.0,1,213
617,[[275.         704.21056426 194.46872448]],1213,35.75,4,117
618,[[275.         648.39306244 225.7992969 ]],1216,38.84615384615385,1,240
619,[[275.         513.80352295 173.76291514]],1217,39.39473684210526,2,101
620,[[275.         309.75576134  73.80205379]],1217,70.75,2,181
621,[[275.         544.66975882 122.6958957 ]],1218,46.0,4,53
622,[[275.         568.54599512 198.32000059]],1219,31.98333333333334,1,338
623,[[275.         566.98306153 195.21329919]],1220,40.5,1,173
624,[[275.         608.89534679 214.5989057 ]],1223,46.0,1,321
625,[[275.         615.33182883 219.50165067]],1224,72.4,1,238
626,[[275.         526.9049104  335.22010987]],1227,54.666666666666664,1,112
627,[[275.         767.80703277 210.49375981]],1229,81.0,10,41
628,[[275.         701.38497486 186.50577713]],1229,46.00000000000001,10,57
629,[[275.         735.46620346 202.59154932]],1233,43.17105263157895,2,41
630,[[275.         746.11703664 183.20342575]],1233,42.0625,2,25
631,[[275.         459.3588737  177.46974654]],1236,65.4375,1,281
632,[[275.         478.28613237 326.00764655]],1237,94.33333333333331,2,134
633,[[275.         498.11189684 338.11768341]],1239,66.5,1,77
634,[[275.         501.52078933 169.71158289]],1244,43.33333333333334,2,170
635,[[275.         318.78867823  50.59812323]],1244,64.33333333333331,2,269
636,[[275.         789.33272878 182.70254344]],1249,76.05,1,142
637,[[275.         588.44188381 210.11188222]],1252,73.5,1,224
638,[[275.         441.31085347 123.80491364]],1253,66.0,3,166
639,[[275.         588.41879805 206.23566149]],1258,44.33333333333334,1,156
640,[[275.         361.00958068  44.52757539]],1260,23.5,2,73
641,[[275.         324.50362606  53.25473301]],1260,94.0,2,106
642,[[275.         431.74659093 134.43833192]],1265,51.25,6,65
643,[[275.         478.17099239 288.15054064]],1269,18.35714285714286,1,107
644,[[275.         516.69807199 338.24765668]],1270,23.916666666666668,1,89
645,[[275.         230.97513201 244.93778288]],1271,22.75,1,95
646,[[275.         790.73016563 222.09381928]],1273,42.60714285714285,1,434
647,[[275.         646.85391484 223.72432154]],1274,62.66666666666667,1,133
648,[[275.         599.30898378 217.94384412]],1279,67.25,1,221
649,[[275.         603.69448653 216.47405028]],1281,23.2,1,192
650,[[275.         541.75178769 184.30517869]],1282,69.75000000000001,1,235
651,[[275.         594.7644246  214.62878083]],1283,47.58333333333333,1,260
652,[[275.         426.32775952 147.01732863]],1284,68.53125,1,99
653,[[275.         538.65598206 339.00759603]],1285,91.16666666666666,1,157
654,[[275.         285.30278771  60.09160599]],1287,35.475,1,441
655,[[275.         198.52370996  81.36853433]],1288,85.0,1,69
656,[[275.         439.55787176 147.35747687]],1289,20.272727272727273,1,209
657,[[275.         587.61099602 209.56042988]],1291,22.66666666666667,1,78
658,[[275.         707.27027061 228.57650122]],1296,55.025,1,210
659,[[275.         321.08429093  61.70337508]],1298,52.07142857142857,1,313
660,[[275.         281.77248977  56.56726746]],1299,45.015625,1,356
661,[[275.         416.16226999 171.82343019]],1302,28.833333333333332,2,115
662,[[275.         435.3921461  130.93285381]],1302,23.5,2,72
663,[[275.         454.88177144 170.39540423]],1303,73.17857142857143,1,174
664,[[275.         600.84869003 213.93721187]],1304,41.125,1,142
665,[[275.         640.78044197 219.0144385 ]],1305,42.25,1,480
666,[[275.         320.20053029  75.72684993]],1306,101.0,4,72
667,[[275.         503.33747165 178.60668213]],1306,41.33620689655173,4,175
668,[[275.         529.7162302  135.51813774]],1311,13.0,9,21
669,[[275.         437.80871998 123.41082127]],1311,55.416666666666664,9,56
670,[[275.         616.27505816 224.48304455]],1313,58.525,1,186
671,[[275.         597.58313673 210.43898738]],1316,51.0,1,235
672,[[275.         599.0334861  208.42537833]],1317,56.0,1,243
673,[[275.         518.10943178 336.63681371]],1318,88.75,1,210
674,[[275.         549.82532858 326.81103778]],1321,82.66666666666669,1,232
675,[[275.         606.59789994 210.01045481]],1324,39.9375,1,81
676,[[275.         193.88982718 141.07933404]],1326,73.0,3,78
677,[[275.         602.74020432 213.37363324]],1333,53.2,1,130
678,[[275.         544.66723782 338.28283753]],1334,69.25,1,253
679,[[275.         598.09200626 209.4059217 ]],1335,46.95,1,43
680,[[275.         490.02602316 358.46496761]],1339,38.35,2,77
681,[[275.         497.42923627 367.2212891 ]],1339,37.916666666666664,2,135
682,[[275.         268.03924366 244.41438343]],1342,56.21428571428571,1,188
683,[[275.         588.8332678  211.96031273]],1344,63.75,1,198
684,[[275.         545.98650301 332.33730371]],1346,23.5,1,528
685,[[275.         561.15029872 198.50084318]],1347,47.1,1,53
686,[[275.         269.11194368 242.86856351]],1348,59.77272727272727,1,193
687,[[275.         593.65629626 216.75343593]],1351,93.2,1,240
688,[[275.         530.04865843 129.38232018]],1352,46.0,10,51
689,[[275.         528.37769346 119.99256108]],1352,15.666666666666663,10,43
690,[[275.         594.70715478 204.61941846]],1354,101.0,1,264
691,[[275.         643.38382079 224.71704555]],1359,90.875,1,330
692,[[275.         634.62032281 228.61331713]],1360,48.06730769230769,1,219
693,[[275.         456.23373737 124.09866612]],1361,33.5,6,74
694,[[275.         608.19644883 215.78837849]],1365,41.0,1,292
695,[[275.         493.37186108 174.35107761]],1369,56.625,1,367
696,[[275.         598.37160354 214.93956712]],1370,39.53571428571428,1,243
697,[[275.         410.32041314  25.87001764]],1371,86.0,15,75
698,[[275.         468.83879881  29.186888  ]],1371,85.25,15,49
699,[[275.         750.7816046  216.57325174]],1373,21.0,6,72
700,[[275.         488.59986337 330.05325367]],1374,79.66666666666666,1,91
701,[[275.         475.22104071 322.40829759]],1378,53.5,2,90
702,[[275.         468.15135848 304.1641278 ]],1378,54.6,2,130
703,[[275.         501.27679433 336.38877254]],1379,31.083333333333336,1,89
704,[[275.         454.16514742 174.08004483]],1383,36.0,1,461
705,[[275.         589.05623809 203.49667787]],1384,48.5,1,113
706,[[275.         240.45845841 243.82072048]],1387,39.53571428571429,1,94
707,[[275.         311.07134371  46.73403007]],1389,51.0,2,69
708,[[275.         303.14958077  61.13011283]],1389,34.7142857142857,2,150
709,[[275.         452.90779607 137.54593931]],1390,39.66666666666667,1,334
710,[[275.         538.09022473 150.60671807]],1391,39.0,5,39
711,[[275.         533.36013025 123.35226987]],1391,61.0,5,31
712,[[275.         202.82147648 100.12209233]],1391,58.54999999999999,5,43
713,[[275.         459.62070645 121.4660885 ]],1391,21.0,5,29
714,[[275.         579.09719083 199.96629633]],1392,19.125,1,111
715,[[275.         435.88488799 100.12403963]],1394,53.5,3,50
716,[[275.         204.80121994 105.16538314]],1394,34.5,3,82
717,[[275.         468.34530801 170.88344963]],1395,21.0625,1,386
718,[[275.         541.20495425 183.9336593 ]],1397,56.666666666666664,1,231
719,[[275.         612.90241141 221.30698035]],1401,41.0,1,240
720,[[275.         449.86493875 116.21611953]],1403,53.625,2,54
721,[[275.        198.308843  127.6810597]],1405,36.0,4,83
722,[[275.         439.90227718 114.24908019]],1405,36.0,4,395
723,[[275.         194.89315655 119.10892461]],1405,17.125,4,154
724,[[275.         275.33389136  58.50144221]],1407,37.611111111111114,1,336
725,[[275.         196.3694344  129.25396356]],1408,36.16666666666667,1,93
726,[[275.         675.68583164 220.96996348]],1409,43.5,1,216
727,[[275.         552.11696742 183.56293774]],1410,24.75,1,156
728,[[275.         552.57938262 190.81819632]],1413,56.5625,2,368
729,[[275.         291.42546995  58.1653934 ]],1415,31.0,1,590
730,[[275.         285.7540074   53.91476853]],1416,44.265625,1,483
731,[[275.         602.0433878  219.87760765]],1418,65.16666666666669,1,250
732,[[275.         493.69203364 313.32852449]],1420,67.45,1,81
733,[[275.         501.22490936 172.31978963]],1424,40.78240740740741,3,117
734,[[275.         333.1290493   53.28243727]],1424,62.66666666666665,3,74
735,[[275.         611.54392496 216.41622397]],1428,48.5,1,205
736,[[275.         445.88070032 127.74301891]],1429,33.05,1,102
737,[[275.         274.03889331  53.97155441]],1433,67.25,1,568
738,[[275.         614.17113214 217.93670972]],1434,46.625,1,148
739,[[275.         500.60650563 175.49538734]],1437,27.04545454545455,1,159
740,[[275.         454.78800178 172.55123116]],1443,72.66666666666669,1,285
741,[[275.         320.81267563  47.4185401 ]],1446,11.0,2,52
742,[[275.         308.1014286   55.62267538]],1446,47.66666666666667,2,77
743,[[275.         201.95678605  88.54854676]],1448,12.75,1,148
744,[[275.         617.36752571 219.87732284]],1459,95.0,1,233
745,[[275.         598.10208706 208.51138394]],1460,33.9375,1,178
746,[[275.         613.75573327 218.52091977]],1464,84.33333333333331,1,226
747,[[275.         239.41574685 247.39818271]],1465,28.0,1,157
748,[[275.         493.71984058 172.14865295]],1468,33.125,1,342
749,[[275.         241.36845292 193.2160056 ]],1469,27.035714285714285,1,265
750,[[275.         325.68792985  49.50845737]],1470,36.999999999999986,1,164
751,[[275.         521.09474027 339.66356786]],1471,38.375,1,170
752,[[275.         676.07610696 218.84511488]],1472,59.25,1,145
753,[[275.         430.1075085  135.46999076]],1474,45.277777777777786,1,74
754,[[275.         412.06894374 172.07322237]],1476,18.5,3,29
755,[[275.         283.95016502 244.51241873]],1482,28.28125,1,222
756,[[275.         709.76244111 230.29597314]],1483,37.65,1,103
757,[[275.         447.27996691 169.93016509]],1484,43.5,1,330
758,[[275.         644.01078499 224.43073496]],1485,33.0,1,127
759,[[275.         451.94595712 170.95985295]],1486,71.15,1,98
760,[[275.         628.53444548 221.03618323]],1487,66.38333333333333,1,199
761,[[275.         320.43625331  64.08131593]],1488,55.75,1,608
762,[[275.         307.21672219  75.2442607 ]],1490,34.11363636363636,2,183
763,[[275.         313.26834244  51.01253812]],1490,18.5,2,133
764,[[275.         546.54544137 329.44030105]],1492,42.25,1,272
765,[[275.         635.77525046 232.15675976]],1494,74.75,1,312
766,[[275.         219.40068115 219.94084109]],1498,64.125,1,87
767,[[275.         516.63811166 179.01150241]],1499,12.2,1,146
768,[[275.         449.53021064 165.5213719 ]],1501,83.84210526315789,1,310
769,[[275.         456.27235501 177.45585507]],1502,57.5,1,220
770,[[275.         305.13682761  70.91338843]],1503,55.086956521739125,1,183
771,[[275.         637.63826175 218.65254553]],1504,36.04166666666667,1,220
772,[[275.         613.77754814 226.03300998]],1505,23.205882352941178,1,89
773,[[275.         566.74016201 196.80693619]],1508,53.5,1,183
774,[[275.         447.35629828 171.4064953 ]],1509,61.0,1,193
775,[[275.         516.43604717 173.18761766]],1511,54.483333333333334,1,202
776,[[275.         306.01778654 239.62202873]],1513,25.615384615384613,1,200
777,[[275.         667.62680657 152.99510036]],1514,52.66666666666667,5,31
778,[[275.         629.09901107 222.78793747]],1521,75.625,1,194
779,[[275.         519.30814464 175.63427792]],1522,43.16326530612245,2,124
780,[[275.         305.8570953   75.89800296]],1522,38.0,2,217
781,[[275.         626.15897282 223.73797481]],1523,52.09375,1,202
782,[[275.         192.42637978 125.09048287]],1525,50.75,1,98
783,[[275.         671.44053998 251.3749091 ]],1530,53.25,1,75
784,[[275.         675.37552469 225.79187003]],1535,63.125,1,317
785,[[275.         700.70661914 207.30262513]],1537,38.25,7,23
786,[[275.         289.88807242  64.76480149]],1539,63.6590909090909,1,436
787,[[275.         441.67121181 119.56797424]],1542,91.71428571428571,7,62
788,[[275.         433.42393466 131.84089585]],1542,71.67857142857142,7,59
789,[[275.         547.9033989  330.75951057]],1546,23.0,1,302
790,[[275.         540.02595416 185.04410473]],1555,30.5625,2,263
791,[[275.         314.43402077  53.7179568 ]],1555,56.0,2,412
792,[[275.         191.30806896 135.42340899]],1558,38.5,1,122
793,[[275.         597.03079467 219.16081596]],1564,73.85714285714286,1,236
794,[[275.         436.14363247 153.08982487]],1566,46.857142857142854,1,263
795,[[275.         411.50927287 172.71804833]],1569,64.25,1,49
796,[[275.         432.44626287 153.75495083]],1571,31.27777777777778,1,95
797,[[275.         515.10157846 173.14644701]],1574,65.0,1,307
798,[[275.         614.91681132 221.88711435]],1575,67.2272727272727,1,234
799,[[275.         463.5637905  171.71063506]],1577,57.083333333333336,1,524
800,[[275.         454.9988693  174.36604593]],1578,60.208333333333336,1,253
801,[[275.         282.34517517  55.7369629 ]],1579,60.632352941176464,1,533
802,[[275.         602.0282651  210.92475298]],1580,33.3,1,176
803,[[275.         793.34883464 235.15748384]],1583,98.53260869565217,1,182
804,[[275.         292.84508633  67.64827086]],1584,39.35294117647059,1,291
805,[[275.         238.40917289 246.06701614]],1586,31.3125,1,146
806,[[275.         193.62868571 132.31190354]],1591,49.0,5,45
807,[[275.         202.07809555 104.94559307]],1591,55.96875,5,325
808,[[275.         585.71410681 197.4238716 ]],1592,101.0,1,179
809,[[275.         272.57604807 245.19185372]],1594,46.5,2,209
810,[[275.         446.83932603 117.72275674]],1595,49.25,1,50
811,[[275.         485.91622641 158.09209408]],1598,33.875,1,80
812,[[275.         446.25080405 128.84272652]],1599,63.25,1,59
813,[[275.         296.32203274  57.97382357]],1600,44.203125,1,528
814,[[275.         302.75085362  69.75897532]],1601,43.5625,1,426
815,[[275.         616.16215027 223.19832043]],1602,70.51923076923075,1,220
816,[[275.         527.3593243  175.71672478]],1603,44.88888888888889,1,196
817,[[275.         540.54200071 182.18996527]],1607,43.55769230769231,1,208
818,[[275.         467.01972673 119.26672062]],1610,57.85,1,236
819,[[275.         457.08400049 179.39621311]],1612,36.0,1,107
820,[[275.         292.36281802  56.43626803]],1614,37.38888888888889,1,511
821,[[275.         649.51033501 170.95182186]],1617,42.25,9,45
822,[[275.         547.29703225 329.18971511]],1618,58.375,1,411
823,[[275.         607.2509401  218.82312201]],1621,49.65,1,231
824,[[275.         757.45903824 213.96069724]],1624,81.0,1,302
825,[[275.         537.69702714 338.7970325 ]],1626,68.25,1,84
826,[[275.         596.83544867 210.48956203]],1628,50.25,1,36
827,[[275.         479.1916216  277.78717109]],1631,23.923076923076927,1,102
828,[[275.         791.4074839  233.00684309]],1632,55.5,1,173
829,[[275.         612.6191935  218.02065957]],1633,60.0,1,273
830,[[275.         548.37659272 326.98074773]],1635,62.375,1,314
831,[[275.         602.44073266 220.01827956]],1639,56.07142857142857,1,242
832,[[275.         615.50088019 219.07476068]],1641,66.75,1,206
833,[[275.         605.95271125 216.73555719]],1642,42.5,1,299
834,[[275.         605.77765825 217.87248865]],1644,34.85,1,65
835,[[275.         454.23358799 114.43549807]],1646,31.0,4,32
836,[[275.         450.16852297 126.83900205]],1646,67.3125,4,34
837,[[275.         314.78260781  67.35112875]],1647,33.25,1,20
838,[[275.         464.98804933 113.86005024]],1648,78.1875,6,65
839,[[275.         503.57931926 147.32314926]],1648,66.875,6,48
840,[[275.         306.59186515 236.90844922]],1651,90.84375,1,121
841,[[275.         237.80791942 248.72862843]],1653,63.5,1,234
842,[[275.         194.924648   126.04995621]],1654,38.0,2,166
843,[[275.         200.35636057 117.88079643]],1654,31.291666666666668,2,177
844,[[275.         553.98161362 193.0104755 ]],1656,56.0,1,289
845,[[275.         548.12991309 338.42168314]],1657,52.0,1,298
846,[[275.         529.47259805 175.38365427]],1658,92.0,1,261
847,[[275.         527.44818136 177.46724307]],1660,30.883333333333333,1,235
848,[[275.         788.07700775 228.60498104]],1661,66.0,1,231
849,[[275.         686.0082354  223.37340558]],1662,68.34375,1,203
850,[[275.         625.22541704 225.76900924]],1663,49.29545454545455,1,221
851,[[275.         278.88060747  59.94534788]],1666,36.25,1,278
852,[[275.         458.51487696 171.50698064]],1667,56.708333333333336,1,137
853,[[275.         800.42945407 224.50166987]],1669,94.62500000000001,1,117
854,[[275.         736.84024089 164.71077845]],1670,23.125,1,186
855,[[275.         292.15741474  63.27636713]],1672,40.80357142857142,1,524
856,[[275.         473.53911974 176.69271035]],1673,38.68181818181817,1,214
857,[[275.         637.74487974 160.34356311]],1676,64.625,13,59
858,[[275.         535.11176515 282.68058809]],1687,29.75,2,416
859,[[275.         535.9480879  281.86336757]],1687,15.416666666666668,2,472
860,[[275.         454.80097999 124.73735324]],1689,39.92857142857143,1,27
861,[[275.         615.75479655 218.58071148]],1694,39.375000000000014,1,100
862,[[275.         617.33378032 219.36260036]],1695,73.66666666666669,1,289
863,[[275.         718.87024578 226.17881652]],1698,34.28333333333334,1,194
864,[[275.         446.92467713 178.35253448]],1699,52.65,1,288
865,[[275.         626.50651165 220.55516536]],1700,61.25,1,200
866,[[275.         540.16094077 181.06108469]],1701,34.16666666666667,3,238
867,[[275.         303.66941783  70.52029775]],1701,57.85,3,469
868,[[275.         565.41163048 193.63957405]],1701,26.666666666666664,3,150
869,[[275.         604.78736043 210.79747414]],1703,58.5,1,158
870,[[275.         606.89018429 214.26741655]],1705,38.75,1,142
871,[[275.         614.4313289  224.70758023]],1707,57.5,1,259
872,[[275.         636.94954773 220.24497794]],1718,63.0,1,269
873,[[275.         651.97679482 223.59441478]],1719,45.6875,1,298
874,[[275.         693.34258691 226.24456692]],1720,46.35714285714285,1,354
875,[[275.         645.01791983 225.32841168]],1722,51.41666666666667,1,238
876,[[275.         539.2436428  337.95666964]],1725,34.375,1,478
877,[[275.         597.78607545 210.95087452]],1728,21.7,1,110
878,[[275.         604.98152076 221.38674832]],1731,64.75,1,315
879,[[275.         446.0263692  121.75409617]],1735,15.0,4,41
880,[[275.         433.20492711 130.55240209]],1735,54.125,4,59
881,[[275.         615.62626282 212.88507231]],1736,64.875,1,188
882,[[275.         273.79069962  53.01692917]],1738,62.07894736842106,1,424
883,[[275.         452.28335949 159.82211017]],1744,82.98214285714288,1,280
884,[[275.         239.1983605  245.59145009]],1745,51.9375,1,86
885,[[275.         203.10431239 104.90691999]],1746,41.0,2,410
886,[[275.         202.33098475 108.2081935 ]],1746,36.0,2,101
887,[[275.         300.03247405  56.65555155]],1747,69.0,1,223
888,[[275.         539.72828235 339.67427065]],1749,34.75,1,405
889,[[275.         451.01735588 121.70309266]],1750,101.0,3,51
890,[[275.         451.84623838 168.69452859]],1752,60.0,1,248
891,[[275.         296.38161252  55.86168387]],1754,39.499999999999986,1,522
892,[[275.         458.56933257 176.34763326]],1756,40.125,1,296
893,[[275.         450.77978685 175.17224906]],1758,46.625,1,342
894,[[275.         287.15217511  59.34126037]],1765,41.526315789473685,1,384
895,[[275.       455.578369 162.128097]],1769,71.0,10,79
896,[[275.         464.20849236 118.89464182]],1769,80.16666666666669,10,46
897,[[275.         495.32746754 153.07107934]],1769,69.95,10,40
898,[[275.         487.08037521 164.86554303]],1769,67.125,10,58
899,[[275.         619.65679379 219.90580376]],1770,67.10714285714286,1,83
900,[[275.         453.67475673 158.13317554]],1771,38.84090909090908,1,320
901,[[275.         505.66627154 336.45778492]],1774,66.0,1,99
902,[[275.         448.14484315 116.14500735]],1775,37.249999999999986,1,104
903,[[275.         448.04455183 116.90249493]],1776,48.75,1,62
904,[[275.         744.37430514 200.26394167]],1778,62.0,2,95
905,[[275.         612.59281358 219.78541112]],1779,49.75,1,104
906,[[275.         598.50132044 212.78694039]],1783,63.25,1,231
907,[[275.         645.53917875 221.98459515]],1785,82.94444444444444,1,244
908,[[275.         572.68651958 165.57828271]],1788,49.33928571428571,1,154
909,[[275.         542.27844098 192.43425145]],1794,42.66666666666666,1,215
910,[[275.         199.89320715 122.83952096]],1797,20.5,2,141
911,[[275.         238.74409429 248.91724215]],1797,30.500000000000007,2,362
912,[[275.         477.92048268 238.94176943]],1800,36.64285714285713,2,109
913,[[275.         303.11115016 241.57100803]],1803,33.80882352941177,1,85
914,[[275.         458.42164543 270.65617249]],1805,57.75,1,779
915,[[275.         711.5527926  208.01555942]],1810,101.0,15,30
916,[[275.         639.3109778  155.54988696]],1810,62.72321428571428,15,30
917,[[275.         681.2203609  175.63885149]],1810,53.15,15,54
918,[[275.         605.91962145 223.17567537]],1815,63.953125,1,271
919,[[275.         550.28346384 191.16921787]],1816,68.66666666666666,1,65
920,[[275.         312.40547438  70.86762595]],1818,39.4921875,3,94
921,[[275.         534.25862489 140.22010107]],1820,51.0,1,150
922,[[275.         506.12214014 123.72647992]],1828,45.5,7,73
923,[[275.         478.55082441 278.48331221]],1834,47.5,1,310
924,[[275.         566.17476573 197.74811169]],1838,49.983333333333334,1,75
925,[[275.         293.02575497  62.773917  ]],1839,77.45833333333333,1,341
926,[[275.         550.12492217 342.88248249]],1840,58.083333333333336,1,104
927,[[275.         461.71867778 126.80243963]],1843,41.0,3,98
928,[[275.         195.26349693  99.95726112]],1843,72.58333333333331,3,67
929,[[275.         446.01722399 127.12558116]],1843,31.9375,3,42
930,[[275.         509.57641584 140.98022406]],1845,55.6,1,172
931,[[275.         757.99776408 227.3058303 ]],1846,101.0,10,32
932,[[275.         615.5369374  220.45173335]],1848,34.8125,1,245
933,[[275.         474.80769687 335.40413427]],1849,28.0,1,115
934,[[275.         237.17723664 249.85599053]],1851,76.0,2,106
935,[[275.         235.84449218 255.28498557]],1851,37.291666666666664,2,92
936,[[275.         445.98866928 129.90498227]],1855,48.25,5,67
937,[[275.         464.89101526 119.16268211]],1855,40.08333333333334,5,37
938,[[275.         509.10580586 148.0157195 ]],1856,98.875,14,21
939,[[275.         457.79040233 113.18521632]],1856,44.375,14,22
940,[[275.         617.41096683 212.30637748]],1858,75.83333333333333,1,173
941,[[275.         450.29970369 170.47532787]],1860,47.75,1,249
942,[[275.         457.22283909 176.71594648]],1864,81.2857142857143,1,243
943,[[275.         591.88787492 202.23801534]],1866,46.0,1,184
944,[[275.         305.79044276  67.86174258]],1867,54.75,1,395
945,[[275.         452.81653612 177.99250144]],1869,54.583333333333336,1,224
946,[[275.         566.41468882 193.06028445]],1872,40.92307692307693,1,91
947,[[275.         699.85534757 225.92874686]],1875,62.25,1,299
948,[[275.         461.95002234 174.43658858]],1879,23.875,1,392
949,[[275.         458.41255658 170.72007614]],1881,18.75,1,355
950,[[275.         612.80878812 169.85737732]],1882,47.25,1,99
951,[[275.         468.74707426 303.807962  ]],1884,71.89285714285714,1,121
952,[[275.         440.54470568 112.35568846]],1886,51.0,5,43
953,[[275.         200.82627171  80.77882945]],1886,19.0,5,81
954,[[275.         200.46264208 110.49560148]],1886,60.0,5,28
955,[[275.         456.30604272 170.82429585]],1888,66.33928571428572,1,205
956,[[275.         552.59743109 192.59247843]],1889,33.5,1,110
957,[[275.         548.05764116 329.42062183]],1891,29.96875,1,390
958,[[275.         480.62165097 175.34519817]],1892,43.13461538461538,5,215
959,[[275.         647.92273973 221.23414266]],1900,46.125,1,179
960,[[275.         572.42026836 173.66218941]],1903,24.7,2,161
961,[[275.         628.00657802 189.81674507]],1903,26.0,2,153
962,[[275.         666.04213218 223.0084027 ]],1906,83.33333333333334,1,234
963,[[275.         539.40449906 336.29541776]],1909,18.5,1,241
964,[[275.         289.67607593  48.23687375]],1911,87.77272727272728,1,391
965,[[275.         547.56155434 151.71820674]],1914,74.25,11,88
966,[[275.         440.38119945 108.34660392]],1915,39.35,1,63
967,[[275.         607.57320804 219.8476241 ]],1918,77.0,1,316
968,[[275.         496.90335537 177.3774998 ]],1921,52.1875,1,226
969,[[275.         569.55912569 198.02957089]],1923,45.359375,1,104
970,[[275.         596.11069938 216.7238136 ]],1924,27.916666666666668,1,171
971,[[275.         628.07449979 219.07422176]],1925,45.5625,1,221
972,[[275.         449.56600197 163.70952755]],1926,91.8125,1,117
973,[[275.         598.90596287 208.44247549]],1927,47.125,1,232
974,[[275.         482.8805458  330.10212914]],1931,69.62499999999999,1,128
975,[[275.         449.46008858 151.69279292]],1934,23.25,1,96
976,[[275.         453.4504908  127.15039981]],1937,20.729166666666664,4,41
