Grey_level,Brain_region,norm_strength,Abbr
1,Medial_octavolateral_nucleus,22.45468,MON
2,Cerebellum,38.79198,Cb
3,MO_stripe_1,26.97678,MOS1
4,MO_stripe_2,0.291515,MOS2
5,MO_stripe_3,14.606526,MOS3
6,MO_stripe_4,11.819566,MOS4
7,MO_stripe_5,12.074454,MOS5
8,interpeduncular_nucleus,55.64041,IPN
9,inferior_olive,1.624462,IO
10,caudal_hypothalamus,41.0988,Hc
11,Raphe_nucleus,104.87422,Ra
12,Tegmentum,55.90471,T
13,anterior_reticular_formation,261.8027,aRF
14,intermediate_reticular_formation,135.1894,imRF
15,posterior_reticular_formation,136.38208,pRF
16,Glossopharyngeal_ganglion,0.194334,GG
17,Habenula,12.43952,Hb
18,intermediate_hypothalamus,172.94239,Hi
19,rostral_hypothalamus,16.954915,Hr
20,Octaval_ganglion,0.452431,OG
21,Olfactory_bulb,11.61838,OB
22,Olfactory_epithelium,0.479543,OE
23,Pallium,44.29683,P 
24,Pituitary,4.163328,Pi
25,Posterior_teberculum,14.212577,PT
26,preoptic_region,18.933091,PO
27,pretectum,31.89934,PrT
28,Retina,6.780549,R 
29,subpallium,55.87023,SP
30,tectum,18.885558,TeO
31,Thalamus,88.47498,Th
32,Torus_longitudinalis,1.506232,TL
33,Torus_semicircularis,69.08637,TS
34,Trigeminal_ganglion,0.126181,TG
35,Vagal_region,0.844617,VR
36,vagus_motor_neurons,3.771934,NX
